%YAML 1.1
%TAG !u! tag:unity3d.com,2011:
--- !u!1045 &1
EditorBuildSettings:
  m_ObjectHideFlags: 0
  serializedVersion: 2
  m_Scenes:
  - enabled: 1
    path: Assets/Bearded Man Studios Inc/Scenes/MultiplayerMenu.unity
    guid: a5b9e296c950dcc4d862eeda4ce5052a
  - enabled: 1
    path: Assets/BasicCube.unity
    guid: f11aac572d3dab04ca2cfdbc156ad77e
